version="1"
tags={
	"Balance"
	"Gameplay"
	"Historical"
	"Technologies"
	"National Focuses"
	"Military"
	"Utilities"
	"Fixes"
}
replace_path="common/ai_strategy_plans"
replace_path="common/ai_strategy"
replace_path="common/ai_focuses"
replace_path="common/ai_equipment"
replace_path="common/characters"
replace_path="common/countries"
replace_path="common/country_leader"
replace_path="common/country_tag_aliases"
replace_path="common/country_tags"
replace_path="common/decisions"
replace_path="common/decisions/categories"
replace_path="common/ideas"
replace_path="common/national_focus"
replace_path="common/units"
replace_path="common/units/codenames_operatives"
replace_path="common/units/names"
replace_path="common/units/names_divisions"
replace_path="common/units/names_ships"
replace_path="common/units/names_railway_guns"
replace_path="common/scripted_effects"
replace_path="common/scripted_triggers"
replace_path="common/scripted_localisation"
replace_path="events"
replace_path="history/countries"
name="based multiplayer (in manuel we trust)"
picture="inManuelWeTrust.png"
supported_version="1.11.*"
remote_file_id="2635500693"