state=
{
	id=298
	name="STATE_298"
	manpower = 745000
	
	state_category = rural
	resources={
		rubber=6 # was: 7
	}	
	

	history= {
		owner = FRA
		add_core_of = HAW
		buildings = {
			infrastructure = 1
			arms_factory = 1
			industrial_complex = 1
			7959 = {
				naval_base = 2
			}
		}
		victory_points = {
			7959 3
		}
		add_extra_state_shared_building_slots = 2
	}
	provinces={
		7959 8006
	}

	local_supplies=0.0 
}
