
state={
	id=309
	name="STATE_309"
	manpower = 152000

	resources={
		aluminium=60 # was: 104
	}	
	
	state_category = rural

	history={
		owner = ENG
		add_core_of = HAW
		victory_points = {
			10906 1
		}
		buildings = {
			infrastructure = 2
			industrial_complex = 1
			12828 = {
				naval_base = 1
			}
		}
	}

	provinces={
		1928 10906 12828 
	}

	local_supplies=0.0 
}
