state=
{
	id=318
	name="STATE_318"
	manpower = 2380000
	
	state_category = town
	
	resources={
		chromium=2 # was: 3
	}
	history=
	{
		owner = HAW
		add_core_of = HAW
		
		buildings = {
			infrastructure = 2
			arms_factory = 1
			industrial_complex = 2 
			air_base = 1
			4641 = {
				naval_base = 3
			}
		}
		
		victory_points = {
			4641 5 
		}

	}
	provinces={
		1594 1635 4641
	}

	local_supplies=0.0 
}
