
state={
	id=461
	name="STATE_461"
	resources={
		chromium=12.000 #added due to portugal setup
	}

	manpower = 3197719
	
	state_category = rural
	
	history={
		owner = FRA
		add_core_of = HAW
		victory_points = {
			7069 10 
		}
		buildings = {
			infrastructure = 2
			industrial_complex = 1
			air_base = 4
			7069 = {
				naval_base = 4
			}
		}
	}

	provinces={
		989 1079 1111 1194 4084 4097 4139 7069 7100 7116 7173 10013 10023 10070 11943 11987 12042 
	}

	local_supplies=0.0 
}
