
state={
	id=506
	name="STATE_506" # Antofagasta
	manpower = 283605
	
	state_category = rural

	history={
		owner = HAW
		add_core_of = HAW
		
		buildings = {
			infrastructure = 2
			industrial_complex = 2
			air_base = 1
			12994 = {
				naval_base = 1
			}
			5228 = {
				naval_base = 2
			}
		}
		
		victory_points = {
			12994 1
		}

	}

	provinces={
		5131 5146 5171 5192 5228 8217 8231 11000 12914 12994 
	}

	local_supplies=0.0 
}
