
state={
	id=535
	name="STATE_535" # Koshinetsu
	manpower = 3871000
	state_category = large_city
	
	resources={
		steel=35 # was: 35
		tungsten=10 # was: 10
	}

	history={
		owner = JAP
		add_core_of = JAP
		buildings = {
		
			arms_factory = 1
			industrial_complex = 2
			infrastructure = 2
			dockyard = 1
			fuel_silo = 1

		}
		
		victory_points = {
			10032 15
		}

	}

	provinces={
		998 7102 7217 10015 10032 
	}

	local_supplies=0.0 
}
