state={
	id=697
	name="STATE_697"
	manpower = 211600
	
	state_category = small_island

	history={
		owner = ENG
		victory_points = {
			3118 1
		}
		buildings = {
			infrastructure = 2
			3118 = {
				naval_base = 1
			}
		}
		add_core_of = HAW
	}
	
	provinces={
		3118 
	}

	local_supplies=0.0 
}
