state={
	id=702
	name="STATE_702"
	manpower = 150600
	
	state_category = small_island

	history={
		owner = ENG
		add_core_of = HAW
		buildings = {
			infrastructure = 2
			13014 ={
				naval_base = 1
			}
		}
	}

	provinces={
		13014 
	}

	local_supplies=0.0 
}
