state={
	id=759
	name="STATE_759"
	provinces={
		1698 1943 2074 4947 5736 10315 
	}
	manpower=70000
	buildings_max_level_factor=1.000
	state_category = wasteland
	history={
		owner = CHI
		add_core_of = CHI
		buildings = {
			infrastructure = 1
		}
	}

	local_supplies=0.0 
}
